{
    "selected_satellite"     : "LEOSAT",
    "save_state_vectors"     : false,
    "save_cartesian_elements": true,
    "plot_cartesian_elements": false,
    "number_of_periods"      : 1000,
    "dt"                     : 100,
    "constants": {
      "mu"                   : 398600,
      "Re"                   : 6378.137,
      "J2"                   : 0.0010826
    },
    
    "satellites": {
      "LEOSAT": [6778, 
                 0, 
                 90, 
                 0, 
                 0, 
                 0],

      "MOLSAT": [26600, 
                 0.74, 
                 58.0, 
                 0, 
                 270, 
                 0]
    }
  }
  